1 10 20
100 200 125
201 210 89
900 1000 174
135002 93798 354
350938 986155 525
632 881411 525
606081 792075 509
969553 44783 525
463387 733808 509
388496 238523 441
402419 752263 509
797631 452796 509
786612 703647 504
483396 445254 444
876896 981675 507
639299 325451 509
487617 81413 449
432274 788906 509
79055 812648 509
47790 637220 509
677532 183138 509
963051 200534 525
700306 818329 504
532202 903517 525
97160 388775 443
126973 178642 383
101616 269362 443
463833 825704 509
662249 878791 525
576320 112759 470
162311 552709 470
155836 326326 443
640847 52221 509
48632 201907 383
573746 93809 470
751738 234760 509
616710 165810 470
478623 552422 470
945417 693069 525
638203 387650 509
14120 314567 443
766120 153543 509
18868 281228 443
340260 17308 443
695433 477596 509
860227 140668 525
646262 196334 509
611000 628828 509
715061 711340 411
316883 965290 525
764494 725665 424
391969 319527 441
500736 133249 449
796143 591684 509
44222 134245 354
729079 138904 509
707372 197786 509
521965 647380 509
740008 890759 525
960920 123058 525
958099 174679 525
620014 928603 525
691241 758145 504
805922 292957 509
934568 350049 525
55227 383297 443
269766 637689 509
33181 22480 308
927790 979997 507
414443 280568 449
522241 670102 509
992433 716640 525
76062 874776 525
235028 211052 443
406317 443939 449
689800 682772 398
105669 404793 443
565536 749987 509
376233 991963 525
196374 258802 443
339025 743833 509
565530 746596 509
223705 461084 449
722845 569852 509
136632 592704 470
670544 9308 509
2376 169735 383
841236 591836 525
287311 223409 443
555720 632682 509
860822 61451 525
530653 488936 470
138381 806930 509
644783 515868 509
901467 158429 525
719683 37489 509
325203 175229 443
328083 801092 509
465276 371991 449
339585 793318 509
751306 721086 424
354228 270871 441
147338 554997 470
221212 630324 509
99592 851661 525
224241 849849 525
537420 76196 470
887522 502943 525
638642 40563 509
649454 879209 525
748899 898594 525
973089 168705 525
479858 949789 525
234037 192542 443
983398 572973 525
20897 663175 509
551836 70700 470
990101 936790 507
758773 245174 509
790375 844438 525
892397 953657 507
570131 538994 452
691120 451027 509
238475 51391 443
398072 348765 436
807571 497093 509
711550 530839 509
327527 696136 509
244599 736528 509
918611 839073 476
728025 247788 509
699580 498858 509
133864 167212 383
981745 927299 507
123015 263995 443
923244 5206 525
108132 611437 470
160543 376207 443
197709 377747 443
611473 777974 509
354665 844662 525
643348 291427 509
531073 919075 525
337653 768805 509
690992 295820 509
992808 731029 525
231717 153137 443
343489 782789 509
409834 945256 525
178860 508042 449
890773 346534 525
369265 785638 509
418878 642227 509
796432 241396 509
612047 300408 470
212132 836662 509
519489 103612 470
562966 324157 470
578236 35814 470
484897 569998 470
923488 170671 525
794733 123062 509
93882 147023 375
58782 306722 443
884621 242584 525
76261 702901 509
26594 438788 449
624639 666063 509
327755 597392 470
458521 491182 444
539371 115676 470
766350 984853 525
237505 574041 470
331724 149834 443
498404 797490 509
81325 149657 375
787521 206910 509
399460 97915 443
135824 988054 525
185589 680793 509
461276 197968 449
23392 893036 525
972393 863012 507
130521 665149 509
878726 208486 525
198566 619876 470
138207 523933 470
606657 511725 470
984702 986500 427
87372 961381 525
861423 649168 525
219533 333959 443
23303 616169 470
798877 290301 509
356640 3904 443
400554 929487 525
235471 67431 443
896666 866088 445
271903 918234 525
749121 616525 509
763794 848821 525
46376 701405 509
2396 772825 509
487297 828137 509
985825 147039 525
502986 401107 449
848194 925739 476
48600 371506 443
177087 73926 383
543729 611510 452
411695 81188 449
87935 45654 351
734625 661086 504
245236 81542 443
152288 278111 443
700496 807047 504
289926 440710 449
957139 685778 525
94073 662689 509
235455 168906 443
730411 193459 509
808369 814860 406
845278 350254 525
910065 720830 525
634653 427048 509
911967 605611 525
422295 496511 444
880483 972161 507
162441 893818 525
535746 966351 525
477106 465239 413
375827 38827 443
665085 401433 509
439176 114181 449
973134 790245 525
16145 281448 443
930128 838059 476
890830 151354 525
880707 507556 525
164927 226731 386
333455 434956 449
224329 738255 509
616106 885903 525
587119 677977 509
1217 11407 268
164823 299551 443
240598 373494 441
459675 794405 509
882777 544763 525
652434 817802 504
46124 878089 525
181170 727102 509
638024 245219 509
660287 77873 509
112525 528928 470
371056 282475 441
311484 500072 449
2652 786668 509
477843 80166 449
294910 570720 470
26399 803295 509
760982 772618 468
903192 110883 525
