544274 80006 470
641880 383544 509
228172 699012 509
99426 497858 449
303242 267817 407
251058 936176 525
361390 943461 525
727340 963142 525
964567 912830 507
459007 786543 509
819640 502266 509
833082 343087 509
717483 218383 509
677078 848953 525
661141 151031 509
452878 736071 509
364066 465314 449
549672 610292 434
964571 449774 525
74706 293652 443
272592 932628 525
446111 863227 525
726718 758361 424
929921 422460 525
389931 381360 436
922564 33293 525
68514 893300 525
764418 721204 424
96813 907840 525
743317 980632 525
889870 816656 525
993940 58816 525
942205 149935 525
592221 722834 509
228676 425653 449
385334 706854 509
86776 161457 383
294573 124623 443
425546 900849 525
28321 924011 525
512778 126435 470
251595 306833 407
48888 667494 509
304580 119383 443
890330 534330 525
350141 201096 443
435335 617050 470
387172 658943 509
849608 895097 445
496420 359687 449
573051 334093 470
62842 722881 509
551593 38492 470
684183 929312 525
732817 896872 525
222955 221118 355
876981 127860 525
337928 908776 525
118858 912114 525
62587 140701 354
141315 816370 509
70070 502513 449
577177 161035 470
554605 483218 470
124818 910280 525
694895 806916 504
946600 799884 525
768783 503283 509
780851 766703 468
929646 197432 525
398866 852763 525
582767 821420 509
935202 536580 525
75966 393701 443
787339 906413 525
824767 93169 509
982161 10075 525
105844 185907 383
812455 333090 509
936329 636527 525
274760 499350 449
161374 896400 525
254952 914982 525
451770 493471 444
887839 935883 476
931031 554509 525
842020 314290 525
360106 888521 525
614838 510407 470
4576 152565 375
253779 597812 470
317536 202071 443
13981 7613 276
11707 368155 443
789853 292424 509
257957 750035 509
671383 680357 385
512980 802381 509
549273 170012 470
235374 371713 441
32271 999607 525
126375 221617 386
148389 4631 375
58230 179322 383
927004 108018 525
890244 421478 525
783959 182655 509
814530 950748 525
96864 586938 470
94056 477423 449
67608 752261 509
87398 377389 443
704219 489415 509
939775 518179 525
532064 504102 470
828768 787936 468
543175 238611 470
53865 834833 509
404495 530017 470
494223 175423 449
871551 803876 525
508404 55793 449
166890 952467 525
412974 277449 449
876510 498296 525
367148 269025 441
995366 833928 525
22721 272860 443
688296 657791 442
656090 762748 504
515245 305774 470
623159 656109 509
588502 833986 509
177302 792836 509
765844 501112 509
859039 209878 525
5206 121486 354
83977 709293 509
15872 382198 443
854593 575557 525
562374 894844 525
675178 335109 509
378126 217330 443
346901 970331 525
174815 388627 443
300201 130062 443
15866 94423 351
92686 227897 386
491228 490882 320
541297 374589 470
850308 17568 525
5289 158331 383
529623 272838 470
941307 830072 525
361268 62988 443
168020 772483 509
164318 122024 383
392406 397205 405
541154 453360 470
703875 151397 509
170073 915167 525
147907 581308 470
887970 754363 525
312332 43649 443
905492 984684 507
491721 410875 444
255317 288259 407
471642 729439 509
371630 205601 443
706929 84240 509
120602 140357 344
735990 884267 525
929580 666825 525
305502 983388 525
278461 244992 407
465379 843205 525
693184 798116 504
229262 869161 525
220776 267075 443
121564 180148 383
236306 226872 443
911252 560809 525
331651 422566 449
766042 68879 509
243102 604666 470
14157 107600 354
248600 512017 470
833106 164077 509
350498 976400 525
642057 53473 509
718006 650348 504
153062 18053 375
213093 470083 449
450552 904362 525
970199 885100 507
694180 603182 509
207876 461308 449
87290 281327 443
523405 2728 470
516424 809446 509
113486 264921 443
962525 138565 525
949036 621426 525
288456 248959 407
409281 696470 509
709819 805916 468
167191 870208 525
507303 735031 509
748223 221406 509
517606 636616 509
98986 265459 443
440669 836563 509
341769 151560 443
128688 581593 470
305316 680967 509
270215 519930 470
336914 375382 441
559461 86302 470
43634 960516 525
242612 579214 470
4985 590405 470
785347 806495 468
190743 891225 525
584554 989330 525
529649 514104 439
410983 618022 470
145540 583290 470
856038 631862 525
326012 128697 443
916891 803692 525
740922 789753 468
456603 239140 449
284756 793447 509
555970 662230 509
865718 775356 525
669623 539140 509
421494 725663 509
879016 407950 525
851266 765870 525
149801 971833 525
456476 430538 400
897053 983073 507
564645 909293 525
578135 569291 390
236039 409826 441
521939 222643 470
877057 636672 525
161258 686999 509
701129 477789 509
136671 1417 354
